Data management and analysis in R – wrangling
…
Comparisons

Using comparisons:

>, >=, <, <=, ==, !=

Example: Keep all data where hwy is larger or equal to and cyl is equal or less than 4.

filter(mpg, hwy >= 30, cyl <= 4)

# A tibble: 26 × 11
   manufacturer model  displ  year   cyl trans     drv     cty   hwy fl    class
   <chr>        <chr>  <dbl> <int> <int> <chr>     <chr> <int> <int> <chr> <chr>
 1 audi         a4       2    2008     4 manual(m… f        20    31 p     comp…
 2 audi         a4       2    2008     4 auto(av)  f        21    30 p     comp…
 3 chevrolet    malibu   2.4  2008     4 auto(l4)  f        22    30 r     mids…
 4 honda        civic    1.6  1999     4 manual(m… f        28    33 r     subc…
 5 honda        civic    1.6  1999     4 auto(l4)  f        24    32 r     subc…
 6 honda        civic    1.6  1999     4 manual(m… f        25    32 r     subc…
 7 honda        civic    1.6  1999     4 auto(l4)  f        24    32 r     subc…
 8 honda        civic    1.8  2008     4 manual(m… f        26    34 r     subc…
 9 honda        civic    1.8  2008     4 auto(l5)  f        25    36 r     subc…
10 honda        civic    1.8  2008     4 auto(l5)  f        24    36 c     subc…
# … with 16 more rows
…
Aim : exclude all SUVs from manufacturer Chevrolet

filter(mpg, !(class == "suv" & manufacturer == "chevrolet"))

Arrange data

Arrange rows in ascending order: arrange()

We can order the observations by values of one (or more) variable.

Example: order the dataset mpgin ascending order according to the variable hwy.

arrange(mpg, hwy)

# A tibble: 234 × 11
   manufacturer model      displ  year   cyl trans drv     cty   hwy fl    class
   <chr>        <chr>      <dbl> <int> <int> <chr> <chr> <int> <int> <chr> <chr>
 1 dodge        dakota pi…   4.7  2008     8 auto… 4         9    12 e     pick…
 2 dodge        durango 4…   4.7  2008     8 auto… 4         9    12 e     suv  
 3 dodge        ram 1500 …   4.7  2008     8 auto… 4         9    12 e     pick…
 4 dodge        ram 1500 …   4.7  2008     8 manu… 4         9    12 e     pick…
 5 jeep         grand che…   4.7  2008     8 auto… 4         9    12 e     suv  
 6 chevrolet    k1500 tah…   5.3  2008     8 auto… 4        11    14 e     suv  
 7 jeep         grand che…   6.1  2008     8 auto… 4        11    14 p     suv  
 8 chevrolet    c1500 sub…   5.3  2008     8 auto… r        11    15 e     suv  
 9 chevrolet    k1500 tah…   5.7  1999     8 auto… 4        11    15 r     suv  
10 dodge        dakota pi…   5.2  1999     8 auto… 4        11    15 r     pick…
# … with 224 more rows

arrange in reversed order

By using desc()we can change the order to descending.

arrange(mpg, desc(hwy))

# A tibble: 234 × 11
   manufacturer model      displ  year   cyl trans drv     cty   hwy fl    class
   <chr>        <chr>      <dbl> <int> <int> <chr> <chr> <int> <int> <chr> <chr>
 1 volkswagen   jetta        1.9  1999     4 manu… f        33    44 d     comp…
 2 volkswagen   new beetle   1.9  1999     4 manu… f        35    44 d     subc…
 3 volkswagen   new beetle   1.9  1999     4 auto… f        29    41 d     subc…
 4 toyota       corolla      1.8  2008     4 manu… f        28    37 r     comp…
 5 honda        civic        1.8  2008     4 auto… f        25    36 r     subc…
 6 honda        civic        1.8  2008     4 auto… f        24    36 c     subc…
 7 toyota       corolla      1.8  1999     4 manu… f        26    35 r     comp…
 8 toyota       corolla      1.8  2008     4 auto… f        26    35 r     comp…
 9 honda        civic        1.8  2008     4 manu… f        26    34 r     subc…
10 honda        civic        1.6  1999     4 manu… f        28    33 r     subc…
# … with 224 more rows

arrange(): multiple variables

We can use multiple variables to define the order of the arranged dataset.

Note: order of the variables matters:

arrange(mpg, desc(cyl), hwy)

# A tibble: 234 × 11
   manufacturer model      displ  year   cyl trans drv     cty   hwy fl    class
   <chr>        <chr>      <dbl> <int> <int> <chr> <chr> <int> <int> <chr> <chr>
 1 dodge        dakota pi…   4.7  2008     8 auto… 4         9    12 e     pick…
 2 dodge        durango 4…   4.7  2008     8 auto… 4         9    12 e     suv  
 3 dodge        ram 1500 …   4.7  2008     8 auto… 4         9    12 e     pick…
 4 dodge        ram 1500 …   4.7  2008     8 manu… 4         9    12 e     pick…
 5 jeep         grand che…   4.7  2008     8 auto… 4         9    12 e     suv  
 6 chevrolet    k1500 tah…   5.3  2008     8 auto… 4        11    14 e     suv  
 7 jeep         grand che…   6.1  2008     8 auto… 4        11    14 p     suv  
 8 chevrolet    c1500 sub…   5.3  2008     8 auto… r        11    15 e     suv  
 9 chevrolet    k1500 tah…   5.7  1999     8 auto… 4        11    15 r     suv  
10 dodge        dakota pi…   5.2  1999     8 auto… 4        11    15 r     pick…
# … with 224 more rows

Select variables

Select columns: select()

We can also choose specific columns of dataset (and remove the rest).

Example: From the dataset mpgwe only want to keep the columns model, drv, andn hwy.

select(mpg, model, drv, hwy)

# A tibble: 234 × 3
   model      drv     hwy
   <chr>      <chr> <int>
 1 a4         f        29
 2 a4         f        29
 3 a4         f        31
 4 a4         f        30
 5 a4         f        26
 6 a4         f        26
 7 a4         f        27
 8 a4 quattro 4        26
 9 a4 quattro 4        25
10 a4 quattro 4        28
# … with 224 more rows

Example: Keep all columns from year to cty.

select(mpg, year:cty)

# A tibble: 234 × 5
    year   cyl trans      drv     cty
   <int> <int> <chr>      <chr> <int>
 1  1999     4 auto(l5)   f        18
 2  1999     4 manual(m5) f        21
 3  2008     4 manual(m6) f        20
 4  2008     4 auto(av)   f        21
 5  1999     6 auto(l5)   f        16
 6  1999     6 manual(m5) f        18
 7  2008     6 auto(av)   f        18
 8  1999     4 manual(m5) 4        18
 9  1999     4 auto(l5)   4        16
10  2008     4 manual(m6) 4        20
# … with 224 more rows

Reverse selection

Instead of actively selecting the columns we want, we can also remove those which we don’t want:

select(mpg, -model, - cyl)

# A tibble: 234 × 9
   manufacturer displ  year trans      drv     cty   hwy fl    class  
   <chr>        <dbl> <int> <chr>      <chr> <int> <int> <chr> <chr>  
 1 audi           1.8  1999 auto(l5)   f        18    29 p     compact
 2 audi           1.8  1999 manual(m5) f        21    29 p     compact
 3 audi           2    2008 manual(m6) f        20    31 p     compact
 4 audi           2    2008 auto(av)   f        21    30 p     compact
 5 audi           2.8  1999 auto(l5)   f        16    26 p     compact
 6 audi           2.8  1999 manual(m5) f        18    26 p     compact
 7 audi           3.1  2008 auto(av)   f        18    27 p     compact
 8 audi           1.8  1999 manual(m5) 4        18    26 p     compact
 9 audi           1.8  1999 auto(l5)   4        16    25 p     compact
10 audi           2    2008 manual(m6) 4        20    28 p     compact
# … with 224 more rows
…
Group_by() & mutate()

Calculations on group level without collapsing the dataset.

mpg %>% 
  group_by(class) %>% 
  mutate(avg_hwy = mean(hwy, na.rm=TRUE)) %>% 
  select(1:2, hwy, avg_hwy)

Adding missing grouping variables: `class`

# A tibble: 234 × 5
# Groups:   class [7]
   class   manufacturer model        hwy avg_hwy
   <chr>   <chr>        <chr>      <int>   <dbl>
 1 compact audi         a4            29    28.3
 2 compact audi         a4            29    28.3
 3 compact audi         a4            31    28.3
 4 compact audi         a4            30    28.3
 5 compact audi         a4            26    28.3
 6 compact audi         a4            26    28.3
 7 compact audi         a4            27    28.3
 8 compact audi         a4 quattro    26    28.3
 9 compact audi         a4 quattro    25    28.3
10 compact audi         a4 quattro    28    28.3
# … with 224 more rows
…
         x    y
1 3.666667 4.25

Removing NA’s from dataset

You can remove observations (rows) from your dataset that include NA’s in a specific column using

# remove all rows that contain NA's in the column hwy
mpg %>% 
  filter(!is.na(hwy))

# A tibble: 234 × 11
   manufacturer model      displ  year   cyl trans drv     cty   hwy fl    class
   <chr>        <chr>      <dbl> <int> <int> <chr> <chr> <int> <int> <chr> <chr>
 1 audi         a4           1.8  1999     4 auto… f        18    29 p     comp…
 2 audi         a4           1.8  1999     4 manu… f        21    29 p     comp…
 3 audi         a4           2    2008     4 manu… f        20    31 p     comp…
 4 audi         a4           2    2008     4 auto… f        21    30 p     comp…
 5 audi         a4           2.8  1999     6 auto… f        16    26 p     comp…
 6 audi         a4           2.8  1999     6 manu… f        18    26 p     comp…
 7 audi         a4           3.1  2008     6 auto… f        18    27 p     comp…
 8 audi         a4 quattro   1.8  1999     4 manu… 4        18    26 p     comp…
 9 audi         a4 quattro   1.8  1999     4 auto… 4        16    25 p     comp…
10 audi         a4 quattro   2    2008     4 manu… 4        20    28 p     comp…
# … with 224 more rows
…
